; Engine configuration file.
; It's best edited using the editor UI and not directly,
; since the parameters that go here are not all obvious.
;
; Format:
;   [section] ; section goes between []
;   param=value ; assign values to parameters

config_version=4

_global_script_classes=[ {
"base": "AudioStreamPlayer",
"class": "MyAudioGeneratorBase",
"language": "GDScript",
"path": "res://Scripts/Tools/Audio/MyAudioGeneratorBase.gd"
}, {
"base": "MyAudioGeneratorBase",
"class": "MyBackgroundNoiseAudioGenerator",
"language": "GDScript",
"path": "res://Scripts/PX/Audio/MyBackgroundNoiseAudioGenerator.gd"
}, {
"base": "Reference",
"class": "MyBinaryNumberPX",
"language": "GDScript",
"path": "res://Scripts/PX/MyBinaryNumberPX.gd"
}, {
"base": "Reference",
"class": "MyButtonBase",
"language": "GDScript",
"path": "res://Scripts/Base/MyButtonBase.gd"
}, {
"base": "MyButtonBase",
"class": "MyButtonPX",
"language": "GDScript",
"path": "res://Scripts/PX/MyButtonPX.gd"
}, {
"base": "Node2D",
"class": "MyGameBase",
"language": "GDScript",
"path": "res://Scripts/Base/MyGameBase.gd"
}, {
"base": "MyGameBase",
"class": "MyGamePX",
"language": "GDScript",
"path": "res://Scripts/PX/MyGamePX.gd"
}, {
"base": "MyAudioGeneratorBase",
"class": "MyGridAudioGeneratorPX",
"language": "GDScript",
"path": "res://Scripts/PX/Audio/MyGridAudioGeneratorPX.gd"
}, {
"base": "Reference",
"class": "MyImagePX",
"language": "GDScript",
"path": "res://Scripts/PX/MyImagePX.gd"
}, {
"base": "Reference",
"class": "MyMath",
"language": "GDScript",
"path": "res://Scripts/Tools/MyMath.gd"
}, {
"base": "Reference",
"class": "MyNumberPX",
"language": "GDScript",
"path": "res://Scripts/PX/MyNumberPX.gd"
}, {
"base": "MyAudioGeneratorBase",
"class": "MyPulseAudioGenerator",
"language": "GDScript",
"path": "res://Scripts/Tools/Audio/MyPulseAudioGenerator.gd"
}, {
"base": "Reference",
"class": "MyShapeBase",
"language": "GDScript",
"path": "res://Scripts/Base/MyShapeBase.gd"
}, {
"base": "MyShapeBase",
"class": "MyShapePX",
"language": "GDScript",
"path": "res://Scripts/PX/MyShapePX.gd"
}, {
"base": "MyAudioGeneratorBase",
"class": "MySirenAudioGenerator",
"language": "GDScript",
"path": "res://Scripts/Tools/Audio/MySirenAudioGenerator.gd"
}, {
"base": "Reference",
"class": "MySounds",
"language": "GDScript",
"path": "res://Scripts/Tools/Audio/MySounds.gd"
}, {
"base": "MyAudioGeneratorBase",
"class": "MyTimerAudioGeneratorPX",
"language": "GDScript",
"path": "res://Scripts/PX/Audio/MyTimerAudioGeneratorPX.gd"
}, {
"base": "Reference",
"class": "MyTimerBase",
"language": "GDScript",
"path": "res://Scripts/Base/MyTimerBase.gd"
}, {
"base": "MyTimerBase",
"class": "MyTimerPX",
"language": "GDScript",
"path": "res://Scripts/PX/MyTimerPX.gd"
}, {
"base": "MyPulseAudioGenerator",
"class": "MyTimerPulseAudioGeneratorPX",
"language": "GDScript",
"path": "res://Scripts/PX/Audio/MyTimerPulseAudioGeneratorPX.gd"
}, {
"base": "MyTutorialStepBase",
"class": "MyTutorialButtonPressedStep",
"language": "GDScript",
"path": "res://Scripts/Base/Tutorial/MyTutorialButtonPressedStep.gd"
}, {
"base": "MyTutorialStepBase",
"class": "MyTutorialButtonReleasedStep",
"language": "GDScript",
"path": "res://Scripts/Base/Tutorial/MyTutorialButtonReleasedStep.gd"
}, {
"base": "MyTutorialStepBase",
"class": "MyTutorialInitColorStepPX",
"language": "GDScript",
"path": "res://Scripts/PX/Tutorial/MyTutorialInitColorStepPX.gd"
}, {
"base": "MyTutorialStepBase",
"class": "MyTutorialMoveShapeStep",
"language": "GDScript",
"path": "res://Scripts/Base/Tutorial/MyTutorialMoveShapeStep.gd"
}, {
"base": "MyTutorialStepBase",
"class": "MyTutorialOverrideDeleteCountDownStep",
"language": "GDScript",
"path": "res://Scripts/Base/Tutorial/MyTutorialOverrideDeleteCountDownStep.gd"
}, {
"base": "MyTutorialStepBase",
"class": "MyTutorialOverrideTimerStep",
"language": "GDScript",
"path": "res://Scripts/Base/Tutorial/MyTutorialOverrideTimerStep.gd"
}, {
"base": "MyTutorialStepBase",
"class": "MyTutorialSetButtonHighlightStepPX",
"language": "GDScript",
"path": "res://Scripts/PX/Tutorial/MyTutorialSetButtonHighlightStepPX.gd"
}, {
"base": "MyTutorialStepBase",
"class": "MyTutorialSetButtonLockedStep",
"language": "GDScript",
"path": "res://Scripts/Base/Tutorial/MyTutorialSetButtonLockedStep.gd"
}, {
"base": "MyTutorialStepBase",
"class": "MyTutorialSetShapeStep",
"language": "GDScript",
"path": "res://Scripts/Base/Tutorial/MyTutorialSetShapeStep.gd"
}, {
"base": "Reference",
"class": "MyTutorialStepBase",
"language": "GDScript",
"path": "res://Scripts/Base/MyTutorialStepBase.gd"
}, {
"base": "MyAudioGeneratorBase",
"class": "MyVariableAudioGenerator",
"language": "GDScript",
"path": "res://Scripts/Tools/Audio/MyVariableAudioGenerator.gd"
}, {
"base": "Reference",
"class": "Ref",
"language": "GDScript",
"path": "res://Scripts/Tools/Ref.gd"
} ]
_global_script_class_icons={
"MyAudioGeneratorBase": "",
"MyBackgroundNoiseAudioGenerator": "",
"MyBinaryNumberPX": "",
"MyButtonBase": "",
"MyButtonPX": "",
"MyGameBase": "",
"MyGamePX": "",
"MyGridAudioGeneratorPX": "",
"MyImagePX": "",
"MyMath": "",
"MyNumberPX": "",
"MyPulseAudioGenerator": "",
"MyShapeBase": "",
"MyShapePX": "",
"MySirenAudioGenerator": "",
"MySounds": "",
"MyTimerAudioGeneratorPX": "",
"MyTimerBase": "",
"MyTimerPX": "",
"MyTimerPulseAudioGeneratorPX": "",
"MyTutorialButtonPressedStep": "",
"MyTutorialButtonReleasedStep": "",
"MyTutorialInitColorStepPX": "",
"MyTutorialMoveShapeStep": "",
"MyTutorialOverrideDeleteCountDownStep": "",
"MyTutorialOverrideTimerStep": "",
"MyTutorialSetButtonHighlightStepPX": "",
"MyTutorialSetButtonLockedStep": "",
"MyTutorialSetShapeStep": "",
"MyTutorialStepBase": "",
"MyVariableAudioGenerator": "",
"Ref": ""
}

[application]

config/name="128PX"
run/main_scene="res://Scenes/128PX.tscn"
config/icon="res://icon.png"
config/windows_native_icon="res://icon.ico"

[debug]

gdscript/warnings/return_value_discarded=false
gdscript/warnings/integer_division=false

[display]

window/size/width=163
window/size/height=323
window/size/test_width=540
window/size/test_height=960
window/dpi/allow_hidpi=true
window/handheld/orientation="portrait"
window/stretch/mode="2d"
window/stretch/aspect="expand"

[physics]

common/enable_pause_aware_picking=true

[rendering]

quality/driver/driver_name="GLES2"
vram_compression/import_etc=true
vram_compression/import_etc2=false
quality/filters/use_nearest_mipmap_filter=true
environment/default_clear_color=Color( 0.0941176, 0.0941176, 0.0941176, 1 )
environment/default_environment="res://default_env.tres"
